{
  "status": 200,
  "message": "success",
  "partnerType": "Talent",
  "imgBanner": "/banner-talent.jpg",
  "items": [
    {
      "idCategory": 0,
      "category": "Aktor",
      "member": [
        {
          "id": 0,
          "name": "Reva Everett",
          "profilePicture": "https://images.unsplash.com/photo-1484186139897-d5fc6b908812?ixid=MnwxMjA3fDB8MHxwaG90by1wYWdlfHx8fGVufDB8fHx8&ixlib=rb-1.2.1&auto=format&fit=crop&w=1000&q=80",
          "rating": 3.9,
          "voters": 346,
          "location": "Wanship",
          "job": "Artis",
          "speciality": "Lainnya",
          "price": 2999,
          "description": "Qui consequat ipsum proident velit ad eu mollit. Reprehenderit est anim laborum ea. Irure et tempor proident cupidatat Lorem id.\r\n",
          "linkYoutube": "https://www.youtube.com/"
        },
        {
          "id": 1,
          "name": "Quinn Hansen",
          "profilePicture": "https://images.unsplash.com/photo-1526510747491-58f928ec870f?ixid=MnwxMjA3fDB8MHxwaG90by1wYWdlfHx8fGVufDB8fHx8&ixlib=rb-1.2.1&auto=format&fit=crop&w=634&q=80",
          "rating": 4.5,
          "voters": 398,
          "location": "Titanic",
          "job": "Model",
          "speciality": "Lainnya",
          "price": 4991,
          "description": "Magna cupidatat dolore do dolor non fugiat aliquip pariatur est deserunt enim. Voluptate consectetur ea ullamco esse excepteur. Ad aliquip commodo aliquip exercitation ullamco aute in. Cillum incididunt deserunt aliquip voluptate nostrud sit dolor nisi et fugiat minim ex occaecat dolore. Consequat aute voluptate pariatur laboris cillum. Ut eiusmod elit cupidatat eu veniam et fugiat exercitation id minim esse sunt nostrud proident. Nisi duis labore nisi reprehenderit occaecat elit anim irure aliquip duis amet.\r\n",
          "linkYoutube": "https://www.youtube.com/"
        },
        {
          "id": 2,
          "name": "Branch Barron",
          "profilePicture": "https://images.unsplash.com/photo-1484515991647-c5760fcecfc7?ixid=MnwxMjA3fDB8MHxwaG90by1wYWdlfHx8fGVufDB8fHx8&ixlib=rb-1.2.1&auto=format&fit=crop&w=687&q=80",
          "rating": 3.9,
          "voters": 132,
          "location": "Bradenville",
          "job": "Penari",
          "speciality": "Lainnya",
          "price": 1905,
          "description": "Deserunt adipisicing minim aute nulla incididunt Lorem sunt do incididunt ex consectetur tempor. Voluptate incididunt do nulla enim qui voluptate labore amet exercitation. Proident amet excepteur adipisicing sint sunt officia elit occaecat. Ad veniam ipsum tempor ullamco aliqua ex nisi velit enim ea mollit.\r\n",
          "linkYoutube": "https://www.youtube.com/"
        }
      ]
    },
    {
      "idCategory": 1,
      "category": "Grup Band",
      "member": [
        {
          "id": 0,
          "name": "Reva Everett",
          "profilePicture": "https://images.unsplash.com/photo-1484186139897-d5fc6b908812?ixid=MnwxMjA3fDB8MHxwaG90by1wYWdlfHx8fGVufDB8fHx8&ixlib=rb-1.2.1&auto=format&fit=crop&w=1000&q=80",
          "rating": 3.9,
          "voters": 346,
          "location": "Wanship",
          "job": "Artis",
          "speciality": "Lainnya",
          "price": 2999,
          "description": "Qui consequat ipsum proident velit ad eu mollit. Reprehenderit est anim laborum ea. Irure et tempor proident cupidatat Lorem id.\r\n",
          "linkYoutube": "https://www.youtube.com/"
        },
        {
          "id": 1,
          "name": "Quinn Hansen",
          "profilePicture": "https://images.unsplash.com/photo-1526510747491-58f928ec870f?ixid=MnwxMjA3fDB8MHxwaG90by1wYWdlfHx8fGVufDB8fHx8&ixlib=rb-1.2.1&auto=format&fit=crop&w=634&q=80",
          "rating": 4.5,
          "voters": 398,
          "location": "Titanic",
          "job": "Model",
          "speciality": "Lainnya",
          "price": 4991,
          "description": "Magna cupidatat dolore do dolor non fugiat aliquip pariatur est deserunt enim. Voluptate consectetur ea ullamco esse excepteur. Ad aliquip commodo aliquip exercitation ullamco aute in. Cillum incididunt deserunt aliquip voluptate nostrud sit dolor nisi et fugiat minim ex occaecat dolore. Consequat aute voluptate pariatur laboris cillum. Ut eiusmod elit cupidatat eu veniam et fugiat exercitation id minim esse sunt nostrud proident. Nisi duis labore nisi reprehenderit occaecat elit anim irure aliquip duis amet.\r\n",
          "linkYoutube": "https://www.youtube.com/"
        },
        {
          "id": 2,
          "name": "Branch Barron",
          "profilePicture": "https://images.unsplash.com/photo-1484515991647-c5760fcecfc7?ixid=MnwxMjA3fDB8MHxwaG90by1wYWdlfHx8fGVufDB8fHx8&ixlib=rb-1.2.1&auto=format&fit=crop&w=687&q=80",
          "rating": 3.9,
          "voters": 132,
          "location": "Bradenville",
          "job": "Penari",
          "speciality": "Lainnya",
          "price": 1905,
          "description": "Deserunt adipisicing minim aute nulla incididunt Lorem sunt do incididunt ex consectetur tempor. Voluptate incididunt do nulla enim qui voluptate labore amet exercitation. Proident amet excepteur adipisicing sint sunt officia elit occaecat. Ad veniam ipsum tempor ullamco aliqua ex nisi velit enim ea mollit.\r\n",
          "linkYoutube": "https://www.youtube.com/"
        }
      ]
    },
    {
      "idCategory": 2,
      "category": "Komedian",
      "member": [
        {
          "id": 0,
          "name": "Reva Everett",
          "profilePicture": "https://images.unsplash.com/photo-1484186139897-d5fc6b908812?ixid=MnwxMjA3fDB8MHxwaG90by1wYWdlfHx8fGVufDB8fHx8&ixlib=rb-1.2.1&auto=format&fit=crop&w=1000&q=80",
          "rating": 3.9,
          "voters": 346,
          "location": "Wanship",
          "job": "Artis",
          "speciality": "Lainnya",
          "price": 2999,
          "description": "Qui consequat ipsum proident velit ad eu mollit. Reprehenderit est anim laborum ea. Irure et tempor proident cupidatat Lorem id.\r\n",
          "linkYoutube": "https://www.youtube.com/"
        },
        {
          "id": 1,
          "name": "Quinn Hansen",
          "profilePicture": "https://images.unsplash.com/photo-1526510747491-58f928ec870f?ixid=MnwxMjA3fDB8MHxwaG90by1wYWdlfHx8fGVufDB8fHx8&ixlib=rb-1.2.1&auto=format&fit=crop&w=634&q=80",
          "rating": 4.5,
          "voters": 398,
          "location": "Titanic",
          "job": "Model",
          "speciality": "Lainnya",
          "price": 4991,
          "description": "Magna cupidatat dolore do dolor non fugiat aliquip pariatur est deserunt enim. Voluptate consectetur ea ullamco esse excepteur. Ad aliquip commodo aliquip exercitation ullamco aute in. Cillum incididunt deserunt aliquip voluptate nostrud sit dolor nisi et fugiat minim ex occaecat dolore. Consequat aute voluptate pariatur laboris cillum. Ut eiusmod elit cupidatat eu veniam et fugiat exercitation id minim esse sunt nostrud proident. Nisi duis labore nisi reprehenderit occaecat elit anim irure aliquip duis amet.\r\n",
          "linkYoutube": "https://www.youtube.com/"
        },
        {
          "id": 2,
          "name": "Branch Barron",
          "profilePicture": "https://images.unsplash.com/photo-1484515991647-c5760fcecfc7?ixid=MnwxMjA3fDB8MHxwaG90by1wYWdlfHx8fGVufDB8fHx8&ixlib=rb-1.2.1&auto=format&fit=crop&w=687&q=80",
          "rating": 3.9,
          "voters": 132,
          "location": "Bradenville",
          "job": "Penari",
          "speciality": "Lainnya",
          "price": 1905,
          "description": "Deserunt adipisicing minim aute nulla incididunt Lorem sunt do incididunt ex consectetur tempor. Voluptate incididunt do nulla enim qui voluptate labore amet exercitation. Proident amet excepteur adipisicing sint sunt officia elit occaecat. Ad veniam ipsum tempor ullamco aliqua ex nisi velit enim ea mollit.\r\n",
          "linkYoutube": "https://www.youtube.com/"
        }
      ]
    },
    {
      "idCategory": 3,
      "category": "Model",
      "member": [
        {
          "id": 0,
          "name": "Reva Everett",
          "profilePicture": "https://images.unsplash.com/photo-1484186139897-d5fc6b908812?ixid=MnwxMjA3fDB8MHxwaG90by1wYWdlfHx8fGVufDB8fHx8&ixlib=rb-1.2.1&auto=format&fit=crop&w=1000&q=80",
          "rating": 3.9,
          "voters": 346,
          "location": "Wanship",
          "job": "Artis",
          "speciality": "Lainnya",
          "price": 2999,
          "description": "Qui consequat ipsum proident velit ad eu mollit. Reprehenderit est anim laborum ea. Irure et tempor proident cupidatat Lorem id.\r\n",
          "linkYoutube": "https://www.youtube.com/"
        },
        {
          "id": 1,
          "name": "Quinn Hansen",
          "profilePicture": "https://images.unsplash.com/photo-1526510747491-58f928ec870f?ixid=MnwxMjA3fDB8MHxwaG90by1wYWdlfHx8fGVufDB8fHx8&ixlib=rb-1.2.1&auto=format&fit=crop&w=634&q=80",
          "rating": 4.5,
          "voters": 398,
          "location": "Titanic",
          "job": "Model",
          "speciality": "Lainnya",
          "price": 4991,
          "description": "Magna cupidatat dolore do dolor non fugiat aliquip pariatur est deserunt enim. Voluptate consectetur ea ullamco esse excepteur. Ad aliquip commodo aliquip exercitation ullamco aute in. Cillum incididunt deserunt aliquip voluptate nostrud sit dolor nisi et fugiat minim ex occaecat dolore. Consequat aute voluptate pariatur laboris cillum. Ut eiusmod elit cupidatat eu veniam et fugiat exercitation id minim esse sunt nostrud proident. Nisi duis labore nisi reprehenderit occaecat elit anim irure aliquip duis amet.\r\n",
          "linkYoutube": "https://www.youtube.com/"
        },
        {
          "id": 2,
          "name": "Branch Barron",
          "profilePicture": "https://images.unsplash.com/photo-1484515991647-c5760fcecfc7?ixid=MnwxMjA3fDB8MHxwaG90by1wYWdlfHx8fGVufDB8fHx8&ixlib=rb-1.2.1&auto=format&fit=crop&w=687&q=80",
          "rating": 3.9,
          "voters": 132,
          "location": "Bradenville",
          "job": "Penari",
          "speciality": "Lainnya",
          "price": 1905,
          "description": "Deserunt adipisicing minim aute nulla incididunt Lorem sunt do incididunt ex consectetur tempor. Voluptate incididunt do nulla enim qui voluptate labore amet exercitation. Proident amet excepteur adipisicing sint sunt officia elit occaecat. Ad veniam ipsum tempor ullamco aliqua ex nisi velit enim ea mollit.\r\n",
          "linkYoutube": "https://www.youtube.com/"
        }
      ]
    },
    {
      "idCategory": 4,
      "category": "Penari",
      "member": [
        {
          "id": 0,
          "name": "Reva Everett",
          "profilePicture": "https://images.unsplash.com/photo-1484186139897-d5fc6b908812?ixid=MnwxMjA3fDB8MHxwaG90by1wYWdlfHx8fGVufDB8fHx8&ixlib=rb-1.2.1&auto=format&fit=crop&w=1000&q=80",
          "rating": 3.9,
          "voters": 346,
          "location": "Wanship",
          "job": "Artis",
          "speciality": "Lainnya",
          "price": 2999,
          "description": "Qui consequat ipsum proident velit ad eu mollit. Reprehenderit est anim laborum ea. Irure et tempor proident cupidatat Lorem id.\r\n",
          "linkYoutube": "https://www.youtube.com/"
        },
        {
          "id": 1,
          "name": "Quinn Hansen",
          "profilePicture": "https://images.unsplash.com/photo-1526510747491-58f928ec870f?ixid=MnwxMjA3fDB8MHxwaG90by1wYWdlfHx8fGVufDB8fHx8&ixlib=rb-1.2.1&auto=format&fit=crop&w=634&q=80",
          "rating": 4.5,
          "voters": 398,
          "location": "Titanic",
          "job": "Model",
          "speciality": "Lainnya",
          "price": 4991,
          "description": "Magna cupidatat dolore do dolor non fugiat aliquip pariatur est deserunt enim. Voluptate consectetur ea ullamco esse excepteur. Ad aliquip commodo aliquip exercitation ullamco aute in. Cillum incididunt deserunt aliquip voluptate nostrud sit dolor nisi et fugiat minim ex occaecat dolore. Consequat aute voluptate pariatur laboris cillum. Ut eiusmod elit cupidatat eu veniam et fugiat exercitation id minim esse sunt nostrud proident. Nisi duis labore nisi reprehenderit occaecat elit anim irure aliquip duis amet.\r\n",
          "linkYoutube": "https://www.youtube.com/"
        },
        {
          "id": 2,
          "name": "Branch Barron",
          "profilePicture": "https://images.unsplash.com/photo-1484515991647-c5760fcecfc7?ixid=MnwxMjA3fDB8MHxwaG90by1wYWdlfHx8fGVufDB8fHx8&ixlib=rb-1.2.1&auto=format&fit=crop&w=687&q=80",
          "rating": 3.9,
          "voters": 132,
          "location": "Bradenville",
          "job": "Penari",
          "speciality": "Lainnya",
          "price": 1905,
          "description": "Deserunt adipisicing minim aute nulla incididunt Lorem sunt do incididunt ex consectetur tempor. Voluptate incididunt do nulla enim qui voluptate labore amet exercitation. Proident amet excepteur adipisicing sint sunt officia elit occaecat. Ad veniam ipsum tempor ullamco aliqua ex nisi velit enim ea mollit.\r\n",
          "linkYoutube": "https://www.youtube.com/"
        }
      ]
    },
    {
      "idCategory": 5,
      "category": "Penyanyi",
      "member": [
        {
          "id": 0,
          "name": "Reva Everett",
          "profilePicture": "https://images.unsplash.com/photo-1484186139897-d5fc6b908812?ixid=MnwxMjA3fDB8MHxwaG90by1wYWdlfHx8fGVufDB8fHx8&ixlib=rb-1.2.1&auto=format&fit=crop&w=1000&q=80",
          "rating": 3.9,
          "voters": 346,
          "location": "Wanship",
          "job": "Artis",
          "speciality": "Lainnya",
          "price": 2999,
          "description": "Qui consequat ipsum proident velit ad eu mollit. Reprehenderit est anim laborum ea. Irure et tempor proident cupidatat Lorem id.\r\n",
          "linkYoutube": "https://www.youtube.com/"
        },
        {
          "id": 1,
          "name": "Quinn Hansen",
          "profilePicture": "https://images.unsplash.com/photo-1526510747491-58f928ec870f?ixid=MnwxMjA3fDB8MHxwaG90by1wYWdlfHx8fGVufDB8fHx8&ixlib=rb-1.2.1&auto=format&fit=crop&w=634&q=80",
          "rating": 4.5,
          "voters": 398,
          "location": "Titanic",
          "job": "Model",
          "speciality": "Lainnya",
          "price": 4991,
          "description": "Magna cupidatat dolore do dolor non fugiat aliquip pariatur est deserunt enim. Voluptate consectetur ea ullamco esse excepteur. Ad aliquip commodo aliquip exercitation ullamco aute in. Cillum incididunt deserunt aliquip voluptate nostrud sit dolor nisi et fugiat minim ex occaecat dolore. Consequat aute voluptate pariatur laboris cillum. Ut eiusmod elit cupidatat eu veniam et fugiat exercitation id minim esse sunt nostrud proident. Nisi duis labore nisi reprehenderit occaecat elit anim irure aliquip duis amet.\r\n",
          "linkYoutube": "https://www.youtube.com/"
        },
        {
          "id": 2,
          "name": "Branch Barron",
          "profilePicture": "https://images.unsplash.com/photo-1484515991647-c5760fcecfc7?ixid=MnwxMjA3fDB8MHxwaG90by1wYWdlfHx8fGVufDB8fHx8&ixlib=rb-1.2.1&auto=format&fit=crop&w=687&q=80",
          "rating": 3.9,
          "voters": 132,
          "location": "Bradenville",
          "job": "Penari",
          "speciality": "Lainnya",
          "price": 1905,
          "description": "Deserunt adipisicing minim aute nulla incididunt Lorem sunt do incididunt ex consectetur tempor. Voluptate incididunt do nulla enim qui voluptate labore amet exercitation. Proident amet excepteur adipisicing sint sunt officia elit occaecat. Ad veniam ipsum tempor ullamco aliqua ex nisi velit enim ea mollit.\r\n",
          "linkYoutube": "https://www.youtube.com/"
        }
      ]
    },
    {
      "idCategory": 6,
      "category": "Pertunjukkan Spesial",
      "member": [
        {
          "id": 0,
          "name": "Reva Everett",
          "profilePicture": "https://images.unsplash.com/photo-1484186139897-d5fc6b908812?ixid=MnwxMjA3fDB8MHxwaG90by1wYWdlfHx8fGVufDB8fHx8&ixlib=rb-1.2.1&auto=format&fit=crop&w=1000&q=80",
          "rating": 3.9,
          "voters": 346,
          "location": "Wanship",
          "job": "Artis",
          "speciality": "Lainnya",
          "price": 2999,
          "description": "Qui consequat ipsum proident velit ad eu mollit. Reprehenderit est anim laborum ea. Irure et tempor proident cupidatat Lorem id.\r\n",
          "linkYoutube": "https://www.youtube.com/"
        },
        {
          "id": 1,
          "name": "Quinn Hansen",
          "profilePicture": "https://images.unsplash.com/photo-1526510747491-58f928ec870f?ixid=MnwxMjA3fDB8MHxwaG90by1wYWdlfHx8fGVufDB8fHx8&ixlib=rb-1.2.1&auto=format&fit=crop&w=634&q=80",
          "rating": 4.5,
          "voters": 398,
          "location": "Titanic",
          "job": "Model",
          "speciality": "Lainnya",
          "price": 4991,
          "description": "Magna cupidatat dolore do dolor non fugiat aliquip pariatur est deserunt enim. Voluptate consectetur ea ullamco esse excepteur. Ad aliquip commodo aliquip exercitation ullamco aute in. Cillum incididunt deserunt aliquip voluptate nostrud sit dolor nisi et fugiat minim ex occaecat dolore. Consequat aute voluptate pariatur laboris cillum. Ut eiusmod elit cupidatat eu veniam et fugiat exercitation id minim esse sunt nostrud proident. Nisi duis labore nisi reprehenderit occaecat elit anim irure aliquip duis amet.\r\n",
          "linkYoutube": "https://www.youtube.com/"
        },
        {
          "id": 2,
          "name": "Branch Barron",
          "profilePicture": "https://images.unsplash.com/photo-1484515991647-c5760fcecfc7?ixid=MnwxMjA3fDB8MHxwaG90by1wYWdlfHx8fGVufDB8fHx8&ixlib=rb-1.2.1&auto=format&fit=crop&w=687&q=80",
          "rating": 3.9,
          "voters": 132,
          "location": "Bradenville",
          "job": "Penari",
          "speciality": "Lainnya",
          "price": 1905,
          "description": "Deserunt adipisicing minim aute nulla incididunt Lorem sunt do incididunt ex consectetur tempor. Voluptate incididunt do nulla enim qui voluptate labore amet exercitation. Proident amet excepteur adipisicing sint sunt officia elit occaecat. Ad veniam ipsum tempor ullamco aliqua ex nisi velit enim ea mollit.\r\n",
          "linkYoutube": "https://www.youtube.com/"
        }
      ]
    },
    {
      "idCategory": 7,
      "category": "Pesulap",
      "member": [
        {
          "id": 0,
          "name": "Reva Everett",
          "profilePicture": "https://images.unsplash.com/photo-1484186139897-d5fc6b908812?ixid=MnwxMjA3fDB8MHxwaG90by1wYWdlfHx8fGVufDB8fHx8&ixlib=rb-1.2.1&auto=format&fit=crop&w=1000&q=80",
          "rating": 3.9,
          "voters": 346,
          "location": "Wanship",
          "job": "Artis",
          "speciality": "Lainnya",
          "price": 2999,
          "description": "Qui consequat ipsum proident velit ad eu mollit. Reprehenderit est anim laborum ea. Irure et tempor proident cupidatat Lorem id.\r\n",
          "linkYoutube": "https://www.youtube.com/"
        },
        {
          "id": 1,
          "name": "Quinn Hansen",
          "profilePicture": "https://images.unsplash.com/photo-1526510747491-58f928ec870f?ixid=MnwxMjA3fDB8MHxwaG90by1wYWdlfHx8fGVufDB8fHx8&ixlib=rb-1.2.1&auto=format&fit=crop&w=634&q=80",
          "rating": 4.5,
          "voters": 398,
          "location": "Titanic",
          "job": "Model",
          "speciality": "Lainnya",
          "price": 4991,
          "description": "Magna cupidatat dolore do dolor non fugiat aliquip pariatur est deserunt enim. Voluptate consectetur ea ullamco esse excepteur. Ad aliquip commodo aliquip exercitation ullamco aute in. Cillum incididunt deserunt aliquip voluptate nostrud sit dolor nisi et fugiat minim ex occaecat dolore. Consequat aute voluptate pariatur laboris cillum. Ut eiusmod elit cupidatat eu veniam et fugiat exercitation id minim esse sunt nostrud proident. Nisi duis labore nisi reprehenderit occaecat elit anim irure aliquip duis amet.\r\n",
          "linkYoutube": "https://www.youtube.com/"
        },
        {
          "id": 2,
          "name": "Branch Barron",
          "profilePicture": "https://images.unsplash.com/photo-1484515991647-c5760fcecfc7?ixid=MnwxMjA3fDB8MHxwaG90by1wYWdlfHx8fGVufDB8fHx8&ixlib=rb-1.2.1&auto=format&fit=crop&w=687&q=80",
          "rating": 3.9,
          "voters": 132,
          "location": "Bradenville",
          "job": "Penari",
          "speciality": "Lainnya",
          "price": 1905,
          "description": "Deserunt adipisicing minim aute nulla incididunt Lorem sunt do incididunt ex consectetur tempor. Voluptate incididunt do nulla enim qui voluptate labore amet exercitation. Proident amet excepteur adipisicing sint sunt officia elit occaecat. Ad veniam ipsum tempor ullamco aliqua ex nisi velit enim ea mollit.\r\n",
          "linkYoutube": "https://www.youtube.com/"
        }
      ]
    },
    {
      "idCategory": 8,
      "category": "Presenter",
      "member": [
        {
          "id": 0,
          "name": "Reva Everett",
          "profilePicture": "https://images.unsplash.com/photo-1484186139897-d5fc6b908812?ixid=MnwxMjA3fDB8MHxwaG90by1wYWdlfHx8fGVufDB8fHx8&ixlib=rb-1.2.1&auto=format&fit=crop&w=1000&q=80",
          "rating": 3.9,
          "voters": 346,
          "location": "Wanship",
          "job": "Artis",
          "speciality": "Lainnya",
          "price": 2999,
          "description": "Qui consequat ipsum proident velit ad eu mollit. Reprehenderit est anim laborum ea. Irure et tempor proident cupidatat Lorem id.\r\n",
          "linkYoutube": "https://www.youtube.com/"
        },
        {
          "id": 1,
          "name": "Quinn Hansen",
          "profilePicture": "https://images.unsplash.com/photo-1526510747491-58f928ec870f?ixid=MnwxMjA3fDB8MHxwaG90by1wYWdlfHx8fGVufDB8fHx8&ixlib=rb-1.2.1&auto=format&fit=crop&w=634&q=80",
          "rating": 4.5,
          "voters": 398,
          "location": "Titanic",
          "job": "Model",
          "speciality": "Lainnya",
          "price": 4991,
          "description": "Magna cupidatat dolore do dolor non fugiat aliquip pariatur est deserunt enim. Voluptate consectetur ea ullamco esse excepteur. Ad aliquip commodo aliquip exercitation ullamco aute in. Cillum incididunt deserunt aliquip voluptate nostrud sit dolor nisi et fugiat minim ex occaecat dolore. Consequat aute voluptate pariatur laboris cillum. Ut eiusmod elit cupidatat eu veniam et fugiat exercitation id minim esse sunt nostrud proident. Nisi duis labore nisi reprehenderit occaecat elit anim irure aliquip duis amet.\r\n",
          "linkYoutube": "https://www.youtube.com/"
        },
        {
          "id": 2,
          "name": "Branch Barron",
          "profilePicture": "https://images.unsplash.com/photo-1484515991647-c5760fcecfc7?ixid=MnwxMjA3fDB8MHxwaG90by1wYWdlfHx8fGVufDB8fHx8&ixlib=rb-1.2.1&auto=format&fit=crop&w=687&q=80",
          "rating": 3.9,
          "voters": 132,
          "location": "Bradenville",
          "job": "Penari",
          "speciality": "Lainnya",
          "price": 1905,
          "description": "Deserunt adipisicing minim aute nulla incididunt Lorem sunt do incididunt ex consectetur tempor. Voluptate incididunt do nulla enim qui voluptate labore amet exercitation. Proident amet excepteur adipisicing sint sunt officia elit occaecat. Ad veniam ipsum tempor ullamco aliqua ex nisi velit enim ea mollit.\r\n",
          "linkYoutube": "https://www.youtube.com/"
        }
      ]
    }
  ]
}
